%YAML 1.1
%TAG !u! tag:unity3d.com,2011:
--- !u!114 &11400000
MonoBehaviour:
  m_ObjectHideFlags: 0
  m_CorrespondingSourceObject: {fileID: 0}
  m_PrefabInstance: {fileID: 0}
  m_PrefabAsset: {fileID: 0}
  m_GameObject: {fileID: 0}
  m_Enabled: 1
  m_EditorHideFlags: 0
  m_Script: {fileID: 11500000, guid: 4a4082d8596ba9a45a5d207c60a75c4f, type: 3}
  m_Name: BallColorConfig
  m_EditorClassIdentifier: 
  Colors:
  - {r: 1, g: 1, b: 1, a: 1}
  - {r: 0.98823535, g: 0.8235295, b: 0.49411768, a: 1}
  - {r: 0.80392164, g: 0.57254905, b: 0.3529412, a: 1}
  - {r: 0.64705884, g: 0.57254905, b: 0.8313726, a: 1}
  - {r: 0.8584906, g: 0.44139376, b: 0.82826626, a: 1}
